C:\Users\Crap\eclipse-workspace\crap-all\org.crap.data\org.crap.data.dao\src\main\java\org\crap\data\dao\sql\orm\IPage.java
C:\Users\Crap\eclipse-workspace\crap-all\org.crap.data\org.crap.data.dao\src\main\java\org\crap\data\dao\sql\util\sql\support\ProfileExt.java
C:\Users\Crap\eclipse-workspace\crap-all\org.crap.data\org.crap.data.dao\src\main\java\org\crap\data\dao\sql\orm\dao\IBaseDao.java
C:\Users\Crap\eclipse-workspace\crap-all\org.crap.data\org.crap.data.dao\src\main\java\org\crap\data\dao\sql\param\PageFlagParam.java
C:\Users\Crap\eclipse-workspace\crap-all\org.crap.data\org.crap.data.dao\src\main\java\org\crap\data\dao\sql\param\PageParam.java
C:\Users\Crap\eclipse-workspace\crap-all\org.crap.data\org.crap.data.dao\src\main\java\org\crap\data\dao\sql\util\sql\support\filter\SqlColumn.java
C:\Users\Crap\eclipse-workspace\crap-all\org.crap.data\org.crap.data.dao\src\main\java\org\crap\data\dao\sql\orm\dao\support\AbstractBaseDaoImpl.java
C:\Users\Crap\eclipse-workspace\crap-all\org.crap.data\org.crap.data.dao\src\main\java\org\crap\data\dao\sql\param\PageNumParam.java
C:\Users\Crap\eclipse-workspace\crap-all\org.crap.data\org.crap.data.dao\src\main\java\org\crap\data\dao\sql\util\sql\Logic.java
C:\Users\Crap\eclipse-workspace\crap-all\org.crap.data\org.crap.data.dao\src\main\java\org\crap\data\dao\sql\orm\support\factory\PageDialect.java
C:\Users\Crap\eclipse-workspace\crap-all\org.crap.data\org.crap.data.dao\src\main\java\org\crap\data\dao\sql\orm\support\OraclePage.java
C:\Users\Crap\eclipse-workspace\crap-all\org.crap.data\org.crap.data.dao\src\main\java\org\crap\data\dao\sql\util\sql\support\ProfileCondition.java
C:\Users\Crap\eclipse-workspace\crap-all\org.crap.data\org.crap.data.dao\src\main\java\org\crap\data\dao\sql\util\IServiceDao.java
C:\Users\Crap\eclipse-workspace\crap-all\org.crap.data\org.crap.data.dao\src\main\java\org\crap\data\dao\sql\service\Mapper.java
C:\Users\Crap\eclipse-workspace\crap-all\org.crap.data\org.crap.data.dao\src\main\java\org\crap\data\dao\sql\util\support\ServiceDao.java
C:\Users\Crap\eclipse-workspace\crap-all\org.crap.data\org.crap.data.dao\src\main\java\org\crap\data\dao\sql\mapper\support\ObjectRowMapper.java
C:\Users\Crap\eclipse-workspace\crap-all\org.crap.data\org.crap.data.dao\src\main\java\org\crap\data\dao\sql\orm\dao\ICommonDao.java
C:\Users\Crap\eclipse-workspace\crap-all\org.crap.data\org.crap.data.dao\src\main\java\org\crap\data\dao\sql\util\sql\support\sort\SortFilter.java
C:\Users\Crap\eclipse-workspace\crap-all\org.crap.data\org.crap.data.dao\src\main\java\org\crap\data\dao\sql\mapper\support\FullMapRowMapper.java
C:\Users\Crap\eclipse-workspace\crap-all\org.crap.data\org.crap.data.dao\src\main\java\org\crap\data\dao\sql\util\OverIsMergeablePlugin.java
C:\Users\Crap\eclipse-workspace\crap-all\org.crap.data\org.crap.data.dao\src\main\java\org\crap\data\dao\sql\util\sql\support\sort\SortJson.java
C:\Users\Crap\eclipse-workspace\crap-all\org.crap.data\org.crap.data.dao\src\main\java\org\crap\data\dao\sql\mapper\AbstractObjectRowMapper.java
C:\Users\Crap\eclipse-workspace\crap-all\org.crap.data\org.crap.data.dao\src\main\java\org\crap\data\dao\sql\orm\support\MySQLPage.java
C:\Users\Crap\eclipse-workspace\crap-all\org.crap.data\org.crap.data.dao\src\main\java\org\crap\data\dao\sql\orm\support\factory\PageFactory.java
C:\Users\Crap\eclipse-workspace\crap-all\org.crap.data\org.crap.data.dao\src\main\java\org\crap\data\dao\sql\util\sql\support\Condition.java
C:\Users\Crap\eclipse-workspace\crap-all\org.crap.data\org.crap.data.dao\src\main\java\org\crap\data\dao\sql\util\sql\support\filter\SqlConditionFilter.java
C:\Users\Crap\eclipse-workspace\crap-all\org.crap.data\org.crap.data.dao\src\main\java\org\crap\data\dao\sql\mapper\support\MapRowMapper.java
C:\Users\Crap\eclipse-workspace\crap-all\org.crap.data\org.crap.data.dao\src\main\java\org\crap\data\dao\sql\orm\dao\ISingleDao.java
C:\Users\Crap\eclipse-workspace\crap-all\org.crap.data\org.crap.data.dao\src\main\java\org\crap\data\dao\sql\util\sql\support\QueryBuilder.java
C:\Users\Crap\eclipse-workspace\crap-all\org.crap.data\org.crap.data.dao\src\main\java\org\crap\data\dao\sql\orm\IMapper.java
C:\Users\Crap\eclipse-workspace\crap-all\org.crap.data\org.crap.data.dao\src\main\java\org\crap\data\dao\sql\orm\dao\support\CommonDao.java
C:\Users\Crap\eclipse-workspace\crap-all\org.crap.data\org.crap.data.dao\src\main\java\org\crap\data\dao\sql\orm\support\DefaultPage.java
C:\Users\Crap\eclipse-workspace\crap-all\org.crap.data\org.crap.data.dao\src\main\java\org\crap\data\dao\sql\orm\support\MapperImpl.java
C:\Users\Crap\eclipse-workspace\crap-all\org.crap.data\org.crap.data.dao\src\main\java\org\crap\data\dao\sql\util\sql\support\SqlUtil.java
C:\Users\Crap\eclipse-workspace\crap-all\org.crap.data\org.crap.data.dao\src\main\java\org\crap\data\dao\sql\util\sql\support\sort\Sort.java
C:\Users\Crap\eclipse-workspace\crap-all\org.crap.data\org.crap.data.dao\src\main\java\org\crap\data\dao\sql\util\EntityMappingException.java
C:\Users\Crap\eclipse-workspace\crap-all\org.crap.data\org.crap.data.dao\src\main\java\org\crap\data\dao\sql\mapper\support\ArrayMapper.java
C:\Users\Crap\eclipse-workspace\crap-all\org.crap.data\org.crap.data.dao\src\main\java\org\crap\data\dao\sql\util\sql\support\filter\SqlFilter.java
C:\Users\Crap\eclipse-workspace\crap-all\org.crap.data\org.crap.data.dao\src\main\java\org\crap\data\dao\sql\util\sql\support\Profile.java
C:\Users\Crap\eclipse-workspace\crap-all\org.crap.data\org.crap.data.dao\src\main\java\org\crap\data\dao\sql\orm\dao\support\AbstractSingleDaoImpl.java
C:\Users\Crap\eclipse-workspace\crap-all\org.crap.data\org.crap.data.dao\src\main\java\org\crap\data\dao\sql\util\sql\support\sort\SortExt.java
C:\Users\Crap\eclipse-workspace\crap-all\org.crap.data\org.crap.data.dao\src\main\java\org\crap\data\dao\sql\orm\support\SQLServer2005Page.java
